{
    "first_name": "String",
    "last_name": "String",
    "nickname": "String",
    "occupation": "String => use this for position of staff too",
    "work_place": "String",
    "birth_date": "String => dd/MM/yyyy",
    "gender": "String => Male, Female"
}